ysyx-workbench/myCPU/dump.vcd
$version Generated by VerilatedVcd $end
$date Mon Jul 11 15:53:56 2022 $end
$timescale 1s $end

 $scope module TOP $end
  $var wire  1 u clock $end
  $var wire 64 w io_dat_addr [63:0] $end
  $var wire 32 "! io_instr [31:0] $end
  $var wire 64 y io_pc_addr [63:0] $end
  $var wire 64 #! io_pc_debug [63:0] $end
  $var wire 64 ~ io_rdata [63:0] $end
  $var wire 64 | io_wdata [63:0] $end
  $var wire  1 { io_wen $end
  $var wire  1 v reset $end
  $scope module myCPU $end
   $var wire  1 u clock $end
   $var wire 64 1 dest [63:0] $end
   $var wire  1 u ebreak_clock $end
   $var wire  1 '! ebreak_enable $end
   $var wire 32 , imm [31:0] $end
   $var wire 32 + imm_tmp [31:0] $end
   $var wire 64 w io_dat_addr [63:0] $end
   $var wire 32 "! io_instr [31:0] $end
   $var wire 64 y io_pc_addr [63:0] $end
   $var wire 64 #! io_pc_debug [63:0] $end
   $var wire 64 ~ io_rdata [63:0] $end
   $var wire 64 | io_wdata [63:0] $end
   $var wire  1 { io_wen $end
   $var wire  1 )! is_4 $end
   $var wire 32 (! op [31:0] $end
   $var wire 64 q pc [63:0] $end
   $var wire  1 u regFile_clock $end
   $var wire  5 ' regFile_io_raddr_0 [4:0] $end
   $var wire  5 ( regFile_io_raddr_1 [4:0] $end
   $var wire 64 ) regFile_io_rdata_0 [63:0] $end
   $var wire 64 %! regFile_io_rdata_1 [63:0] $end
   $var wire 64 ? regFile_io_rdata_10 [63:0] $end
   $var wire 64 A regFile_io_rdata_11 [63:0] $end
   $var wire 64 C regFile_io_rdata_12 [63:0] $end
   $var wire 64 E regFile_io_rdata_13 [63:0] $end
   $var wire 64 G regFile_io_rdata_14 [63:0] $end
   $var wire 64 I regFile_io_rdata_15 [63:0] $end
   $var wire 64 K regFile_io_rdata_16 [63:0] $end
   $var wire 64 M regFile_io_rdata_17 [63:0] $end
   $var wire 64 O regFile_io_rdata_18 [63:0] $end
   $var wire 64 Q regFile_io_rdata_19 [63:0] $end
   $var wire 64 S regFile_io_rdata_20 [63:0] $end
   $var wire 64 U regFile_io_rdata_21 [63:0] $end
   $var wire 64 W regFile_io_rdata_22 [63:0] $end
   $var wire 64 Y regFile_io_rdata_23 [63:0] $end
   $var wire 64 [ regFile_io_rdata_24 [63:0] $end
   $var wire 64 ] regFile_io_rdata_25 [63:0] $end
   $var wire 64 _ regFile_io_rdata_26 [63:0] $end
   $var wire 64 a regFile_io_rdata_27 [63:0] $end
   $var wire 64 c regFile_io_rdata_28 [63:0] $end
   $var wire 64 e regFile_io_rdata_29 [63:0] $end
   $var wire 64 g regFile_io_rdata_30 [63:0] $end
   $var wire 64 i regFile_io_rdata_31 [63:0] $end
   $var wire 64 k regFile_io_rdata_32 [63:0] $end
   $var wire 64 m regFile_io_rdata_33 [63:0] $end
   $var wire 64 o regFile_io_rdata_34 [63:0] $end
   $var wire 64 3 regFile_io_rdata_4 [63:0] $end
   $var wire 64 5 regFile_io_rdata_5 [63:0] $end
   $var wire 64 7 regFile_io_rdata_6 [63:0] $end
   $var wire 64 9 regFile_io_rdata_7 [63:0] $end
   $var wire 64 ; regFile_io_rdata_8 [63:0] $end
   $var wire 64 = regFile_io_rdata_9 [63:0] $end
   $var wire  5 $ regFile_io_waddr [4:0] $end
   $var wire 64 % regFile_io_wdata [63:0] $end
   $var wire  1 # regFile_io_wen $end
   $var wire  1 v regFile_reset $end
   $var wire  1 u reg_debug_clock $end
   $var wire 64 *! reg_debug_regfile_0 [63:0] $end
   $var wire 64 3 reg_debug_regfile_1 [63:0] $end
   $var wire 64 E reg_debug_regfile_10 [63:0] $end
   $var wire 64 G reg_debug_regfile_11 [63:0] $end
   $var wire 64 I reg_debug_regfile_12 [63:0] $end
   $var wire 64 K reg_debug_regfile_13 [63:0] $end
   $var wire 64 M reg_debug_regfile_14 [63:0] $end
   $var wire 64 O reg_debug_regfile_15 [63:0] $end
   $var wire 64 Q reg_debug_regfile_16 [63:0] $end
   $var wire 64 S reg_debug_regfile_17 [63:0] $end
   $var wire 64 U reg_debug_regfile_18 [63:0] $end
   $var wire 64 W reg_debug_regfile_19 [63:0] $end
   $var wire 64 5 reg_debug_regfile_2 [63:0] $end
   $var wire 64 Y reg_debug_regfile_20 [63:0] $end
   $var wire 64 [ reg_debug_regfile_21 [63:0] $end
   $var wire 64 ] reg_debug_regfile_22 [63:0] $end
   $var wire 64 _ reg_debug_regfile_23 [63:0] $end
   $var wire 64 a reg_debug_regfile_24 [63:0] $end
   $var wire 64 c reg_debug_regfile_25 [63:0] $end
   $var wire 64 e reg_debug_regfile_26 [63:0] $end
   $var wire 64 g reg_debug_regfile_27 [63:0] $end
   $var wire 64 i reg_debug_regfile_28 [63:0] $end
   $var wire 64 k reg_debug_regfile_29 [63:0] $end
   $var wire 64 7 reg_debug_regfile_3 [63:0] $end
   $var wire 64 m reg_debug_regfile_30 [63:0] $end
   $var wire 64 o reg_debug_regfile_31 [63:0] $end
   $var wire 64 9 reg_debug_regfile_4 [63:0] $end
   $var wire 64 ; reg_debug_regfile_5 [63:0] $end
   $var wire 64 = reg_debug_regfile_6 [63:0] $end
   $var wire 64 ? reg_debug_regfile_7 [63:0] $end
   $var wire 64 A reg_debug_regfile_8 [63:0] $end
   $var wire 64 C reg_debug_regfile_9 [63:0] $end
   $var wire  1 v reg_debug_reset $end
   $var wire  1 v reset $end
   $var wire 64 - src1 [63:0] $end
   $var wire 64 / src2 [63:0] $end
   $scope module ebreak $end
    $var wire  1 u clock $end
    $var wire  1 '! enable $end
   $upscope $end
   $scope module regFile $end
    $var wire  1 u clock $end
    $var wire  5 ' io_raddr_0 [4:0] $end
    $var wire  5 ( io_raddr_1 [4:0] $end
    $var wire 64 ) io_rdata_0 [63:0] $end
    $var wire 64 %! io_rdata_1 [63:0] $end
    $var wire 64 ? io_rdata_10 [63:0] $end
    $var wire 64 A io_rdata_11 [63:0] $end
    $var wire 64 C io_rdata_12 [63:0] $end
    $var wire 64 E io_rdata_13 [63:0] $end
    $var wire 64 G io_rdata_14 [63:0] $end
    $var wire 64 I io_rdata_15 [63:0] $end
    $var wire 64 K io_rdata_16 [63:0] $end
    $var wire 64 M io_rdata_17 [63:0] $end
    $var wire 64 O io_rdata_18 [63:0] $end
    $var wire 64 Q io_rdata_19 [63:0] $end
    $var wire 64 S io_rdata_20 [63:0] $end
    $var wire 64 U io_rdata_21 [63:0] $end
    $var wire 64 W io_rdata_22 [63:0] $end
    $var wire 64 Y io_rdata_23 [63:0] $end
    $var wire 64 [ io_rdata_24 [63:0] $end
    $var wire 64 ] io_rdata_25 [63:0] $end
    $var wire 64 _ io_rdata_26 [63:0] $end
    $var wire 64 a io_rdata_27 [63:0] $end
    $var wire 64 c io_rdata_28 [63:0] $end
    $var wire 64 e io_rdata_29 [63:0] $end
    $var wire 64 g io_rdata_30 [63:0] $end
    $var wire 64 i io_rdata_31 [63:0] $end
    $var wire 64 k io_rdata_32 [63:0] $end
    $var wire 64 m io_rdata_33 [63:0] $end
    $var wire 64 o io_rdata_34 [63:0] $end
    $var wire 64 3 io_rdata_4 [63:0] $end
    $var wire 64 5 io_rdata_5 [63:0] $end
    $var wire 64 7 io_rdata_6 [63:0] $end
    $var wire 64 9 io_rdata_7 [63:0] $end
    $var wire 64 ; io_rdata_8 [63:0] $end
    $var wire 64 = io_rdata_9 [63:0] $end
    $var wire  5 $ io_waddr [4:0] $end
    $var wire 64 % io_wdata [63:0] $end
    $var wire  1 # io_wen $end
    $var wire 64 s reg_0 [63:0] $end
    $var wire 64 3 reg_1 [63:0] $end
    $var wire 64 E reg_10 [63:0] $end
    $var wire 64 G reg_11 [63:0] $end
    $var wire 64 I reg_12 [63:0] $end
    $var wire 64 K reg_13 [63:0] $end
    $var wire 64 M reg_14 [63:0] $end
    $var wire 64 O reg_15 [63:0] $end
    $var wire 64 Q reg_16 [63:0] $end
    $var wire 64 S reg_17 [63:0] $end
    $var wire 64 U reg_18 [63:0] $end
    $var wire 64 W reg_19 [63:0] $end
    $var wire 64 5 reg_2 [63:0] $end
    $var wire 64 Y reg_20 [63:0] $end
    $var wire 64 [ reg_21 [63:0] $end
    $var wire 64 ] reg_22 [63:0] $end
    $var wire 64 _ reg_23 [63:0] $end
    $var wire 64 a reg_24 [63:0] $end
    $var wire 64 c reg_25 [63:0] $end
    $var wire 64 e reg_26 [63:0] $end
    $var wire 64 g reg_27 [63:0] $end
    $var wire 64 i reg_28 [63:0] $end
    $var wire 64 k reg_29 [63:0] $end
    $var wire 64 7 reg_3 [63:0] $end
    $var wire 64 m reg_30 [63:0] $end
    $var wire 64 o reg_31 [63:0] $end
    $var wire 64 9 reg_4 [63:0] $end
    $var wire 64 ; reg_5 [63:0] $end
    $var wire 64 = reg_6 [63:0] $end
    $var wire 64 ? reg_7 [63:0] $end
    $var wire 64 A reg_8 [63:0] $end
    $var wire 64 C reg_9 [63:0] $end
    $var wire  1 v reset $end
   $upscope $end
   $scope module reg_debug $end
    $var wire  1 u clock $end
    $var wire 64 *! regfile_0 [63:0] $end
    $var wire 64 3 regfile_1 [63:0] $end
    $var wire 64 E regfile_10 [63:0] $end
    $var wire 64 G regfile_11 [63:0] $end
    $var wire 64 I regfile_12 [63:0] $end
    $var wire 64 K regfile_13 [63:0] $end
    $var wire 64 M regfile_14 [63:0] $end
    $var wire 64 O regfile_15 [63:0] $end
    $var wire 64 Q regfile_16 [63:0] $end
    $var wire 64 S regfile_17 [63:0] $end
    $var wire 64 U regfile_18 [63:0] $end
    $var wire 64 W regfile_19 [63:0] $end
    $var wire 64 5 regfile_2 [63:0] $end
    $var wire 64 Y regfile_20 [63:0] $end
    $var wire 64 [ regfile_21 [63:0] $end
    $var wire 64 ] regfile_22 [63:0] $end
    $var wire 64 _ regfile_23 [63:0] $end
    $var wire 64 a regfile_24 [63:0] $end
    $var wire 64 c regfile_25 [63:0] $end
    $var wire 64 e regfile_26 [63:0] $end
    $var wire 64 g regfile_27 [63:0] $end
    $var wire 64 i regfile_28 [63:0] $end
    $var wire 64 k regfile_29 [63:0] $end
    $var wire 64 7 regfile_3 [63:0] $end
    $var wire 64 m regfile_30 [63:0] $end
    $var wire 64 o regfile_31 [63:0] $end
    $var wire 64 9 regfile_4 [63:0] $end
    $var wire 64 ; regfile_5 [63:0] $end
    $var wire 64 = regfile_6 [63:0] $end
    $var wire 64 ? regfile_7 [63:0] $end
    $var wire 64 A regfile_8 [63:0] $end
    $var wire 64 C regfile_9 [63:0] $end
    $var wire  1 v reset $end
   $upscope $end
  $upscope $end
 $upscope $end
$enddefinitions $end


#1
1#
b01000 $
b0000000000000000000000000000000000000000000000000000000000000000 %
b00000 '
b00000 (
b0000000000000000000000000000000000000000000000000000000000000000 )
b00000000000000000000000000000000 +
b00000000000000000000000000000000 ,
b0000000000000000000000000000000000000000000000000000000000000000 -
b0000000000000000000000000000000000000000000000000000000000000000 /
b0000000000000000000000000000000000000000000000000000000000000000 1
b0000000000000000000000000000000000000000000000000000000000000000 3
b0000000000000000000000000000000000000000000000000000000000000000 5
b0000000000000000000000000000000000000000000000000000000000000000 7
b0000000000000000000000000000000000000000000000000000000000000000 9
b0000000000000000000000000000000000000000000000000000000000000000 ;
b0000000000000000000000000000000000000000000000000000000000000000 =
b0000000000000000000000000000000000000000000000000000000000000000 ?
b0000000000000000000000000000000000000000000000000000000000000000 A
b0000000000000000000000000000000000000000000000000000000000000000 C
b0000000000000000000000000000000000000000000000000000000000000000 E
b0000000000000000000000000000000000000000000000000000000000000000 G
b0000000000000000000000000000000000000000000000000000000000000000 I
b0000000000000000000000000000000000000000000000000000000000000000 K
b0000000000000000000000000000000000000000000000000000000000000000 M
b0000000000000000000000000000000000000000000000000000000000000000 O
b0000000000000000000000000000000000000000000000000000000000000000 Q
b0000000000000000000000000000000000000000000000000000000000000000 S
b0000000000000000000000000000000000000000000000000000000000000000 U
b0000000000000000000000000000000000000000000000000000000000000000 W
b0000000000000000000000000000000000000000000000000000000000000000 Y
b0000000000000000000000000000000000000000000000000000000000000000 [
b0000000000000000000000000000000000000000000000000000000000000000 ]
b0000000000000000000000000000000000000000000000000000000000000000 _
b0000000000000000000000000000000000000000000000000000000000000000 a
b0000000000000000000000000000000000000000000000000000000000000000 c
b0000000000000000000000000000000000000000000000000000000000000000 e
b0000000000000000000000000000000000000000000000000000000000000000 g
b0000000000000000000000000000000000000000000000000000000000000000 i
b0000000000000000000000000000000000000000000000000000000000000000 k
b0000000000000000000000000000000000000000000000000000000000000000 m
b0000000000000000000000000000000000000000000000000000000000000000 o
b0000000000000000000000000000000010000000000000000000000000000100 q
b0000000000000000000000000000000000000000000000000000000000000000 s
1u
0v
b0000000000000000000000000000000000000000000000000000000000000000 w
b0000000000000000000000000000000010000000000000000000000000000100 y
0{
b0000000000000000000000000000000000000000000000000000000000000000 |
b0000000000000000000000000000000000000000000000000000000000000000 ~
b00000000000000000000010000010011 "!
b0000000000000000000000000000000010000000000000000000000000000100 #!
b0000000000000000000000000000000000000000000000000000000000000000 %!
0'!
b00000000000000000000000000010011 (!
1)!
b0000000000000000000000000000000000000000000000000000000000000000 *!
#2
b00010 $
b0000000000000000000000000000000010000000000000001001000000001000 %
b00000000000000000000000000001001 ,
b0000000000000000000000000000000000000000000000001001000000000000 -
b0000000000000000000000000000000010000000000000001001000000000100 5
b0000000000000000000000000000000010000000000000000000000000001000 q
b0000000000000000000000000000000010000000000000000000000000001000 y
b00000000000000001001000100010111 "!
b0000000000000000000000000000000010000000000000000000000000001000 #!
b00000000000000000000000000010111 (!
#3
b0000000000000000000000000000000010000000000000001000111111111100 %
b00010 '
b0000000000000000000000000000000010000000000000001001000000000000 )
b00000000000000000000111111111100 ,
b0000000000000000000000000000000010000000000000001001000000000000 -
b1111111111111111111111111111111111111111111111111111111111111100 /
b0000000000000000000000000000000010000000000000001000111111111100 1
b0000000000000000000000000000000010000000000000001001000000000000 5
b0000000000000000000000000000000010000000000000000000000000001100 q
b0000000000000000000000000000000010000000000000000000000000001100 y
b11111111110000010000000100010011 "!
b0000000000000000000000000000000010000000000000000000000000001100 #!
b00000000000000000000000000010011 (!
#4
b00001 $
b0000000000000000000000000000000010000000000000000000000000011100 %
b00000 '
b0000000000000000000000000000000000000000000000000000000000000000 )
b00000000110000000000000000000000 +
b00000000000000000000000000001100 ,
b0000000000000000000000000000000000000000000000000000000000001100 -
b0000000000000000000000000000000000000000000000000000000000000000 /
b0000000000000000000000000000000010000000000000000000000000011100 1
b0000000000000000000000000000000010000000000000000000000000010000 3
b0000000000000000000000000000000010000000000000000000000000011000 q
b0000000000000000000000000000000010000000000000000000000000011000 y
b00000000110000000000000011101111 "!
b0000000000000000000000000000000010000000000000000000000000011000 #!
b00000000000000000000000001101111 (!
0)!
#5
b00010 $
b0000000000000000000000000000000010000000000000001000111111100000 %
b00010 '
b0000000000000000000000000000000010000000000000001000111111110000 )
b00000000000000000000000000000000 +
b00000000000000000000111111110000 ,
b0000000000000000000000000000000010000000000000001000111111110000 -
b1111111111111111111111111111111111111111111111111111111111110000 /
b0000000000000000000000000000000010000000000000001000111111100000 1
b0000000000000000000000000000000010000000000000001000111111110000 5
b0000000000000000000000000000000010000000000000000000000000011100 q
b0000000000000000000000000000000010000000000000000000000000011100 y
b11111111000000010000000100010011 "!
b0000000000000000000000000000000010000000000000000000000000011100 #!
b00000000000000000000000000010011 (!
1)!
#6
b01010 $
b0000000000000000000000000000000010000000000000000000000000100000 %
b00000 '
b0000000000000000000000000000000000000000000000000000000000000000 )
b00000000000000000000000000000000 ,
b0000000000000000000000000000000000000000000000000000000000000000 -
b0000000000000000000000000000000000000000000000000000000000000000 /
b0000000000000000000000000000000000000000000000000000000000000000 1
b0000000000000000000000000000000010000000000000000000000000011100 E
b0000000000000000000000000000000010000000000000000000000000100000 q
b0000000000000000000000000000000010000000000000000000000000100000 y
b00000000000000000000010100010111 "!
b0000000000000000000000000000000010000000000000000000000000100000 #!
b00000000000000000000000000010111 (!
#7
b0000000000000000000000000000000010000000000000000000000001010100 %
b01010 '
b0000000000000000000000000000000010000000000000000000000000111000 )
b00000000000000000000000000011100 ,
b0000000000000000000000000000000010000000000000000000000000111000 -
b0000000000000000000000000000000000000000000000000000000000011100 /
b0000000000000000000000000000000010000000000000000000000001010100 1
b0000000000000000000000000000000010000000000000000000000000111000 E
b0000000000000000000000000000000010000000000000000000000000100100 q
b0000000000000000000000000000000010000000000000000000000000100100 y
b00000001110001010000010100010011 "!
b0000000000000000000000000000000010000000000000000000000000100100 #!
b00000000000000000000000000010011 (!
#8
0#
b00000 $
b0000000000000000000000000000000000000000000000000000000000000000 %
b00010 '
b0000000000000000000000000000000010000000000000001000111111110000 )
b00000000000000000000000000000000 ,
b0000000000000000000000000000000010000000000000001000111111110000 -
b0000000000000000000000000000000000000000000000000000000000000000 /
b0000000000000000000000000000000000000000000000000000000000000000 1
b0000000000000000000000000000000010000000000000000000000000101000 q
b0000000000000000000000000000000010000000000000001000111111110000 w
b0000000000000000000000000000000010000000000000000000000000101000 y
1{
b00000000000100010011010000100011 "!
b0000000000000000000000000000000010000000000000000000000000101000 #!
b00000000000000000000000000100011 (!
#9
1#
b00001 $
b0000000000000000000000000000000010000000000000000000000000010100 %
b00000 '
b0000000000000000000000000000000000000000000000000000000000000000 )
b11111110100111111111000000000000 +
b00000000000111111111111111101000 ,
b1111111111111111111111111111111111111111111111111111111111101000 -
b0000000000000000000000000000000010000000000000000000000000010100 1
b0000000000000000000000000000000010000000000000000000000000101100 3
b0000000000000000000000000000000010000000000000000000000000010000 q
b0000000000000000000000000000000000000000000000000000000000000000 w
b0000000000000000000000000000000010000000000000000000000000010000 y
0{
b11111110100111111111000011101111 "!
b0000000000000000000000000000000010000000000000000000000000010000 #!
b00000000000000000000000001101111 (!
0)!
#10
b01010 $
b0000000000000000000000000000000000000000000000000000000000000000 %
b00000000000000000000000000000000 +
b00000000000000000000000000000000 ,
b0000000000000000000000000000000000000000000000000000000000000000 -
b0000000000000000000000000000000000000000000000000000000000000000 1
b0000000000000000000000000000000000000000000000000000000000000000 E
b0000000000000000000000000000000010000000000000000000000000010100 q
b0000000000000000000000000000000010000000000000000000000000010100 y
b00000000000000000000010100010011 "!
b0000000000000000000000000000000010000000000000000000000000010100 #!
b00000000000000000000000000010011 (!
1)!
#11
b00000 $
b0000000000000000000000000000000010000000000000000000000000110000 %
b00001 '
b0000000000000000000000000000000010000000000000000000000000101100 )
b0000000000000000000000000000000010000000000000000000000000101100 -
b0000000000000000000000000000000010000000000000000000000000110000 1
b0000000000000000000000000000000010000000000000000000000000101100 q
b0000000000000000000000000000000010000000000000000000000000011000 s
b0000000000000000000000000000000010000000000000000000000000101100 y
b00000000000000001000000001100111 "!
b0000000000000000000000000000000010000000000000000000000000101100 #!
b00000000000000000000000001100111 (!
0)!
#12
0#
b0000000000000000000000000000000000000000000000000000000000000000 %
b00000 '
b0000000000000000000000000000000000000000000000000000000000000000 )
b0000000000000000000000000000000000000000000000000000000000000000 -
b0000000000000000000000000000000000000000000000000000000000000000 1
b0000000000000000000000000000000010000000000000000000000000110000 q
b0000000000000000000000000000000010000000000000000000000000110000 y
b00000000000100000000000001110011 "!
b0000000000000000000000000000000010000000000000000000000000110000 #!
1'!
b00000000000000000000000001110011 (!
1)!
#13
b0000000000000000000000000000000010000000000000000000000000110100 q
b0000000000000000000000000000000010000000000000000000000000110100 y
b0000000000000000000000000000000010000000000000000000000000110100 #!
